PSTAT 100: Summer 2025 – PSTAT 100: Lecture 04
…
Tidying

Code

wb_tidy <- wb %>% melt(
  id.vars = c("Country Name", "Country Code", "Continent", "Series Name"),
  variable.name = "Year"
) %>%
  pivot_wider(
    names_from = `Series Name`
  )

wb_tidy %>% head(100)

# A tibble: 100 × 15
   `Country Name`      `Country Code` Continent     Year  `GDP (current US$)`
   <chr>               <chr>          <chr>         <fct>               <dbl>
 1 Afghanistan         AFG            Asia          1960                  NA 
 2 Albania             ALB            Europe        1960                  NA 
 3 Algeria             DZA            Africa        1960          2723615451.
 4 American Samoa      ASM            North America 1960                  NA 
 5 Andorra             AND            Europe        1960                  NA 
 6 Angola              AGO            Africa        1960                  NA 
 7 Antigua and Barbuda ATG            North America 1960                  NA 
 8 Argentina           ARG            South America 1960                  NA 
 9 Armenia             ARM            Europe        1960                  NA 
10 Aruba               ABW            North America 1960                  NA 
# ℹ 90 more rows
# ℹ 10 more variables: `Life expectancy at birth, female (years)` <dbl>,
#   `Life expectancy at birth, male (years)` <dbl>,
#   `Life expectancy at birth, total (years)` <dbl>,
#   `Literacy rate, adult female (% of females ages 15 and above)` <dbl>,
#   `Literacy rate, adult male (% of males ages 15 and above)` <dbl>,
#   `Literacy rate, adult total (% of people ages 15 and above)` <dbl>, …
…
